<?xml version="1.0" encoding="UTF-8" standalone="no"?>
<svg xmlns:rdf="http://www.w3.org/1999/02/22-rdf-syntax-ns#" xmlns="http://www.w3.org/2000/svg" version="1.1" xmlns:cc="http://creativecommons.org/ns#" xmlns:xlink="http://www.w3.org/1999/xlink" viewBox="0 0 15.999465 16.004757" xmlns:dc="http://purl.org/dc/elements/1.1/">
<metadata>
<rdf:RDF>
<cc:Work rdf:about="">
<dc:format>image/svg+xml</dc:format>
<dc:type rdf:resource="http://purl.org/dc/dcmitype/StillImage"/>
</cc:Work>
</rdf:RDF>
</metadata>
<defs>
<linearGradient id="b" y2="218.8141" gradientUnits="userSpaceOnUse" x2="21.32992" gradientTransform="matrix(1,0,0,1.980119,-4.001611,-220.1696)" y1="214.8097" x1="16.3967">
<stop stop-color="#8ab3df" offset="0"/>
<stop stop-color="#fff" offset="1"/>
</linearGradient>
<linearGradient id="c" y2="211.605" gradientUnits="userSpaceOnUse" x2="18.58443" gradientTransform="matrix(1,0,0,1.133349,0,-27.33777)" y1="205.4478" x1="11.87961">
<stop stop-color="#5a5a5a" offset="0"/>
<stop offset="1"/>
</linearGradient>
<linearGradient id="a" y2="218.8026" gradientUnits="userSpaceOnUse" x2="17.49814" gradientTransform="matrix(.752624 0 0 1.186414 .561763 -47.91824)" y1="214.5411" x1="15.64649">
<stop stop-color="#fff" offset="0"/>
<stop stop-color="#98b6d3" offset="1"/>
</linearGradient>
</defs>
<g transform="matrix(.997361 0 0 .997566 -383.94382 -114.67791)">
<path stroke-linejoin="round" style="color:#000000" d="m394.9 119.4c3.036 0 5.5 2.464 5.5 5.5s-2.464 5.5-5.5 5.5-5.5-2.464-5.5-5.5" stroke-dashoffset=".2406103" stroke="#c80000" stroke-miterlimit="0" stroke-dasharray="1.2030517, 1.2030517" stroke-width="1.2030518" fill="none"/>
<path fill-rule="evenodd" fill="#c80000" d="m394 119.5 3 2.5v-5l-3 2.5z"/>
<g stroke-linejoin="round" stroke-miterlimit="0" transform="matrix(1,0,0,1.008019,374.9507,-91.76403)">
<rect style="color:#000000" height="7.932448" width="7.99868" stroke="url(#c)" y="205.5765" x="10.5083" stroke-width=".9985474" fill="none"/>
<rect style="color:#000000" fill-rule="evenodd" height="5.947848" width="6.00072" stroke="url(#a)" stroke-linecap="round" y="206.5649" x="11.50669" stroke-width=".9985487" fill="url(#b)"/>
</g>
</g>
</svg>
