<?xml version="1.0" encoding="UTF-8" standalone="no"?>
<svg xmlns:rdf="http://www.w3.org/1999/02/22-rdf-syntax-ns#" xmlns="http://www.w3.org/2000/svg" version="1.1" xmlns:cc="http://creativecommons.org/ns#" xmlns:xlink="http://www.w3.org/1999/xlink" viewBox="0 0 20 20" xmlns:dc="http://purl.org/dc/elements/1.1/">
<metadata>
<rdf:RDF>
<cc:Work rdf:about="">
<dc:format>image/svg+xml</dc:format>
<dc:type rdf:resource="http://purl.org/dc/dcmitype/StillImage"/>
</cc:Work>
</rdf:RDF>
</metadata>
<defs>
<linearGradient id="a" y2="76.98393" gradientUnits="userSpaceOnUse" x2="690" gradientTransform="matrix(1.124999,0,0,1.125,-85.22497,-7.125909)" y1="67.59227" x1="705.2217">
<stop stop-color="#fff" offset="0"/>
<stop stop-color="#98b6d3" offset="1"/>
</linearGradient>
</defs>
<g transform="translate(-690.0445,-64.98826)">
<rect style="color:#000000" fill-rule="evenodd" height="18" width="17.99999" y="65.9991" x="691.0244" stroke-width="1.0000004" fill="url(#a)"/>
<rect stroke-linejoin="round" style="color:#000000" transform="translate(20.04509 -.0117415)" height="19" width="19" stroke="#000" stroke-linecap="round" y="65.5" x="670.4994" stroke-width="1px" fill="none"/>
</g>
</svg>
