<?xml version="1.0" encoding="UTF-8" standalone="no"?>
<svg xmlns:rdf="http://www.w3.org/1999/02/22-rdf-syntax-ns#" xmlns="http://www.w3.org/2000/svg" version="1.1" xmlns:cc="http://creativecommons.org/ns#" viewBox="0 0 16 16" xmlns:dc="http://purl.org/dc/elements/1.1/">
<metadata>
<rdf:RDF>
<cc:Work rdf:about="">
<dc:format>image/svg+xml</dc:format>
<dc:type rdf:resource="http://purl.org/dc/dcmitype/StillImage"/>
</cc:Work>
</rdf:RDF>
</metadata>
<g stroke-linejoin="round" stroke-miterlimit="0" transform="translate(-314.91614,-209)" fill="none">
<path style="color:#000000" d="m224 155.5c0-3.036 2.464-5.5 5.5-5.5s5.5 2.464 5.5 5.5-2.464 5.5-5.5 5.5" transform="translate(95.41614,59.5)" stroke="#c80000" stroke-dasharray="1, 1"/>
<path style="color:#000000" d="m220.5 155.5625v9.9375h10.0937v-4.125c-0.206 0.0234-0.3814 0.125-0.5937 0.125-3.036 0-5.5-2.464-5.5-5.5 0-0.1565 0.0809-0.2843 0.0937-0.4375h-4.0937z" transform="translate(94.91614,59)" stroke="#000" stroke-width="1.0000002"/>
</g>
</svg>
