<?xml version="1.0" encoding="UTF-8" standalone="no"?>
<svg xmlns:rdf="http://www.w3.org/1999/02/22-rdf-syntax-ns#" xmlns="http://www.w3.org/2000/svg" version="1.1" xmlns:cc="http://creativecommons.org/ns#" xmlns:xlink="http://www.w3.org/1999/xlink" viewBox="0 0 16 16" xmlns:dc="http://purl.org/dc/elements/1.1/">
<metadata>
<rdf:RDF>
<cc:Work rdf:about="">
<dc:format>image/svg+xml</dc:format>
<dc:type rdf:resource="http://purl.org/dc/dcmitype/StillImage"/>
</cc:Work>
</rdf:RDF>
</metadata>
<defs>
<linearGradient id="a" y2="214.2806" gradientUnits="userSpaceOnUse" x2="1095.32" gradientTransform="matrix(.6644326 0 0 .6364719 -764.818 59.22875)" y1="177.7928" x1="1095.32">
<stop offset="0"/>
<stop stop-color="#7f7f7f" offset=".35076979"/>
<stop stop-color="#bfbfbf" offset=".59668732"/>
<stop stop-color="#dfdfdf" offset=".78382427"/>
<stop stop-color="#fff" offset="1"/>
</linearGradient>
</defs>
<g transform="translate(45,-175)">
<rect style="color:#000000" height="16" width="16" y="175" x="-45" fill="none"/>
<path style="color:#000000" stroke-width=".6138721" fill="url(#a)" d="m-29.84463 186.6535c-3.54547 0-4.66866-2.3171-7.16674-2.3204-2.49807-0.003-3.78523 2.3204-7.24734 2.3204v-2.5541-2.7501c3.11679 0.0401 4.21308 2.1772 7.25315 2.2062 3.04007 0.0289 3.22096-2.1054 7.16093-2.2062"/>
<path style="color:#000000" d="m-44.25871 181.3493c3.11679 0.0401 4.21308 1.8832 7.25315 1.9121s3.22096-1.8113 7.16093-1.9121m0 5.3042c-3.54547 0-4.66866-2.149-7.16674-2.1523-2.49807-0.003-3.78523 2.1523-7.24734 2.1523" stroke="#000" stroke-width=".6138721" fill="none"/>
</g>
</svg>
