<?xml version="1.0" encoding="UTF-8" standalone="no"?>
<svg xmlns:rdf="http://www.w3.org/1999/02/22-rdf-syntax-ns#" xmlns="http://www.w3.org/2000/svg" version="1.1" xmlns:cc="http://creativecommons.org/ns#" viewBox="0 0 24 24" xmlns:dc="http://purl.org/dc/elements/1.1/">
<metadata>
<rdf:RDF>
<cc:Work rdf:about="">
<dc:format>image/svg+xml</dc:format>
<dc:type rdf:resource="http://purl.org/dc/dcmitype/StillImage"/>
</cc:Work>
</rdf:RDF>
</metadata>
<path fill="#99b6d4" d="m0.5 24v-23.5h23.5v17h-6.5v6.5z"/>
<path fill="none" stroke="#000" d="m0.5 24v-23.5h23.5m0 17h-6.5v6.5"/>
<path d="m9 24v-15h15" stroke-dashoffset="2" stroke="#fff" stroke-dasharray="2 2" stroke-width="2px" fill="none"/>
</svg>
